[
    {
        "name": "abs_eta_uncalib",
        "default": 0.9200232507807469,
        "scale": 0.6347419648456459,
        "shift": 0.9200232507807469
    },
    {
        "name": "pt_uncalib",
        "default": 171006.62147369116,
        "scale": 371360.01740585594,
        "shift": 171006.62147369116
    },
    {
        "name": "JetFitter_mass",
        "default": 2284.1045764648434,
        "scale": 1650.4637285847518,
        "shift": 2284.1045463448936
    },
    {
        "name": "JetFitter_isDefaults",
        "default": null,
        "scale": 1.0,
        "shift": 0.0
    },
    {
        "name": "JetFitter_energyFraction",
        "default": 0,
        "scale": 0.34191567444566273,
        "shift": 0.3077724668488479
    },
    {
        "name": "JetFitter_significance3d",
        "default": 0,
        "scale": 15.87410652773497,
        "shift": 9.933812057390693
    },
    {
        "name": "JetFitter_nVTX",
        "default": -1,
        "scale": 0.9787459522148131,
        "shift": 0.14921404282321502
    },
    {
        "name": "JetFitter_nSingleTracks",
        "default": -1,
        "scale": 1.030674570369718,
        "shift": 0.08336297238993172
    },
    {
        "name": "JetFitter_nTracksAtVtx",
        "default": -1,
        "scale": 2.0294775354442742,
        "shift": 0.9764511443911873
    },
    {
        "name": "JetFitter_N2Tpair",
        "default": -1,
        "scale": 4.828948002190066,
        "shift": 2.007448449369872
    },
    {
        "name": "JetFitter_deltaR",
        "default": 0.05057937120246276,
        "scale": 0.052383178190337394,
        "shift": 0.050579371771062025
    },
    {
        "name": "SV1_NGTinSvx",
        "default": -1,
        "scale": 2.7444014773149807,
        "shift": 0.9743453739978248
    },
    {
        "name": "SV1_masssvx",
        "default": 2029.4641169316787,
        "scale": 776.8139548235142,
        "shift": 2029.4641135056609
    },
    {
        "name": "SV1_isDefaults",
        "default": null,
        "scale": 1.0,
        "shift": 0.0
    },
    {
        "name": "SV1_N2Tpair",
        "default": -1,
        "scale": 4.214823630833088,
        "shift": 1.219973870560724
    },
    {
        "name": "SV1_efracsvx",
        "default": 0,
        "scale": 0.3151979778224032,
        "shift": 0.21515805480556724
    },
    {
        "name": "SV1_deltaR",
        "default": 0.05871953911986475,
        "scale": 0.10641240707434219,
        "shift": 0.05871953852824453
    },
    {
        "name": "SV1_Lxy",
        "default": 14.43777004210257,
        "scale": 14.289011554650287,
        "shift": 14.437769949003927
    },
    {
        "name": "SV1_L3d",
        "default": 24.033469680081144,
        "scale": 26.732642795226717,
        "shift": 24.03346996971856
    },
    {
        "name": "SV1_significance3d",
        "default": 29.971049709933204,
        "scale": 25.553631382058036,
        "shift": 29.97105004774322
    },
    {
        "name": "IP2D_bu",
        "default": 0.5169684200711732,
        "scale": 4.828639914813029,
        "shift": 0.5169684201595718
    },
    {
        "name": "IP2D_isDefaults",
        "default": null,
        "scale": 1.0,
        "shift": 0.0
    },
    {
        "name": "IP2D_bc",
        "default": -0.7795821559731639,
        "scale": 2.2317882441197954,
        "shift": -0.7795821558053717
    },
    {
        "name": "IP2D_cu",
        "default": 1.285442040667675,
        "scale": 2.7305548336223673,
        "shift": 1.28544203999579
    },
    {
        "name": "IP3D_bu",
        "default": 0.7626610006287521,
        "scale": 5.41968580061358,
        "shift": 0.7626610005058528
    },
    {
        "name": "IP3D_isDefaults",
        "default": null,
        "scale": 1.0,
        "shift": 0.0
    },
    {
        "name": "IP3D_bc",
        "default": -0.7728054663207368,
        "scale": 2.6125187999195134,
        "shift": -0.7728054662026347
    },
    {
        "name": "IP3D_cu",
        "default": 1.5303372630150396,
        "scale": 3.04080076182862,
        "shift": 1.5303372625350042
    },
    {
        "name": "secondaryVtx_nTrks",
        "default": 0,
        "scale": 1.2932670435162754,
        "shift": 1.2443202594939855
    },
    {
        "name": "secondaryVtx_isDefaults",
        "default": null,
        "scale": 1.0,
        "shift": 0.0
    },
    {
        "name": "secondaryVtx_m",
        "default": 707.9188193635963,
        "scale": 611.4776703026747,
        "shift": 707.9188207497692
    },
    {
        "name": "secondaryVtx_E",
        "default": 90549.68346462944,
        "scale": 552527.6565964567,
        "shift": 90549.682114718
    },
    {
        "name": "secondaryVtx_EFrac",
        "default": 0,
        "scale": 0.21648845546608592,
        "shift": 0.15824885482636486
    },
    {
        "name": "secondaryVtx_L3d",
        "default": 25.330346700932978,
        "scale": 38.01990745838386,
        "shift": 25.3303468296738
    },
    {
        "name": "secondaryVtx_Lxy",
        "default": 14.697242292324997,
        "scale": 19.764793973000415,
        "shift": 14.697242451182147
    },
    {
        "name": "secondaryVtx_max_trk_flightDirRelEta",
        "default": 4.480377596616475,
        "scale": 1.0428153345906126,
        "shift": 4.480377624309371
    },
    {
        "name": "secondaryVtx_min_trk_flightDirRelEta",
        "default": 3.913660734552785,
        "scale": 0.9665040370299096,
        "shift": 3.913660745325055
    },
    {
        "name": "secondaryVtx_avg_trk_flightDirRelEta",
        "default": 4.195239854007104,
        "scale": 0.9600723119851221,
        "shift": 4.195239913600185
    },
    {
        "name": "max_trk_flightDirRelEta",
        "default": 5.267252807246534,
        "scale": 1.2335784505540293,
        "shift": 5.267252807246534
    },
    {
        "name": "min_trk_flightDirRelEta",
        "default": 2.284319113666071,
        "scale": 0.5604421506807528,
        "shift": 2.284319113666071
    },
    {
        "name": "avg_trk_flightDirRelEta",
        "default": 3.404555245568538,
        "scale": 0.8125708169500702,
        "shift": 3.404555245568538
    },
    {
        "name": "rnnip_pb",
        "default": 0.29266170258040936,
        "scale": 0.3266593295342924,
        "shift": 0.29266170256140395
    },
    {
        "name": "rnnip_pc",
        "default": 0.17807100102569923,
        "scale": 0.10944183001488832,
        "shift": 0.17807100104534432
    },
    {
        "name": "rnnip_pu",
        "default": 0.5062643651246128,
        "scale": 0.3324470831800588,
        "shift": 0.5062643652000062
    },
    {
        "name": "rnnip_ptau",
        "default": 0.02300293126999856,
        "scale": 0.08132339520787359,
        "shift": 0.02300293127185848
    },
    {
        "name": "rnnip_isDefaults",
        "default": null,
        "scale": 1.0,
        "shift": 0.0
    },
    {
        "name": "SMT_dR",
        "default": 0.06331018298299859,
        "scale": 0.022977485802843825,
        "shift": 0.06331018350635322
    },
    {
        "name": "SMT_mu_d0",
        "default": -0.019267390722658734,
        "scale": 0.404282281764175,
        "shift": -0.01926739132351302
    },
    {
        "name": "SMT_qOverPratio",
        "default": 23.62598581371938,
        "scale": 631.9867245596815,
        "shift": 23.625986062069543
    },
    {
        "name": "SMT_pTrel",
        "default": 12669.354919494506,
        "scale": 11910.242564194103,
        "shift": 12669.354547820496
    },
    {
        "name": "SMT_scatneighsignif",
        "default": 0.356353179964651,
        "scale": 14.235709598746976,
        "shift": 0.35635319175647323
    },
    {
        "name": "SMT_mombalsignif",
        "default": 0.7412996847685316,
        "scale": 0.5811056766361261,
        "shift": 0.7412996882891024
    },
    {
        "name": "SMT_isDefaults",
        "default": null,
        "scale": 1.0,
        "shift": 0.0
    },
    {
        "name": "iprnn_pb",
        "default": 0.3635574734392882,
        "scale": 0.34755296304084426,
        "shift": 0.3635574734392882
    },
    {
        "name": "iprnn_pc",
        "default": 0.18063396542318488,
        "scale": 0.13941199672912158,
        "shift": 0.18063396542318488
    },
    {
        "name": "iprnn_pu",
        "default": 0.45580856110753715,
        "scale": 0.3564758277715337,
        "shift": 0.45580856110753715
    },
    {
        "name": "softMuon_pt",
        "default": 43841.26849321133,
        "scale": 174706.73013938408,
        "shift": 43841.26941417978
    },
    {
        "name": "softMuon_dR",
        "default": 0.055549693849950205,
        "scale": 0.018788402979780346,
        "shift": 0.05554969253029657
    },
    {
        "name": "softMuon_eta",
        "default": 0.0002692026677671319,
        "scale": 0.3303872222746794,
        "shift": 0.00026920266176502165
    },
    {
        "name": "softMuon_phi",
        "default": 0.04011118103126157,
        "scale": 0.6061156085475695,
        "shift": 0.04011118046665827
    },
    {
        "name": "softMuon_qOverPratio",
        "default": 7.208863553925327,
        "scale": 390.1520536860677,
        "shift": 7.208863714754893
    },
    {
        "name": "softMuon_momentumBalanceSignificance",
        "default": 0.7601293316409252,
        "scale": 0.5496855665000332,
        "shift": 0.7601293324407484
    },
    {
        "name": "softMuon_scatteringNeighbourSignificance",
        "default": 0.3545423075050004,
        "scale": 14.226603978084452,
        "shift": 0.3545423141602629
    },
    {
        "name": "softMuon_pTrel",
        "default": 11367.952566609973,
        "scale": 9782.702101016743,
        "shift": 11367.952195599082
    },
    {
        "name": "softMuon_ip3dD0",
        "default": 0.23057838744310585,
        "scale": 0.3094320244081669,
        "shift": 0.23057839214622114
    },
    {
        "name": "softMuon_ip3dZ0",
        "default": 0.8212510263049428,
        "scale": 3.528428309555712,
        "shift": 0.8212510337857055
    },
    {
        "name": "softMuon_ip3dD0Significance",
        "default": 7.971120245897996,
        "scale": 7.4367778048624364,
        "shift": 7.9711203449254215
    },
    {
        "name": "softMuon_ip3dZ0Significance",
        "default": 7.40779007858187,
        "scale": 34.59424653877157,
        "shift": 7.407790172129551
    },
    {
        "name": "softMuon_ip3dD0Uncertainty",
        "default": 0.02324291223065732,
        "scale": 0.006434195368808994,
        "shift": 0.023242911426168713
    },
    {
        "name": "softMuon_ip3dZ0Uncertainty",
        "default": 0.034302220634574304,
        "scale": 3.539172063851892,
        "shift": 0.034302219848428996
    },
    {
        "name": "softMuon_isDefaults",
        "default": null,
        "scale": 1.0,
        "shift": 0.0
    },
    {
        "name": "smt_b",
        "default": 0.6637067412676865,
        "scale": 0.0729071820803801,
        "shift": 0.6637067222879696
    },
    {
        "name": "smt_c",
        "default": 0.12067665757917448,
        "scale": 0.0198415967589554,
        "shift": 0.12067665888199385
    },
    {
        "name": "smt_u",
        "default": 0.17186317052132863,
        "scale": 0.07953648129209342,
        "shift": 0.1718631687084578
    },
    {
        "name": "averageInteractionsPerCrossing",
        "default": 38.94552745568572,
        "scale": 13.518026378260755,
        "shift": 38.94552745568572
    },
    {
        "name": "actualInteractionsPerCrossing",
        "default": 38.94552745568572,
        "scale": 13.518026378260755,
        "shift": 38.94552745568572
    },
    {
        "name": "HadronConeExclTruthLabelID",
        "default": 3.0,
        "scale": 2.160246899469287,
        "shift": 3.0
    }
]